%YAML 1.1
%TAG !u! tag:unity3d.com,2011:
--- !u!1045 &1
EditorBuildSettings:
  m_ObjectHideFlags: 0
  serializedVersion: 2
  m_Scenes:
  - enabled: 1
    path: Assets/VersionMono/Scenes/MonoTowerDefense.unity
    guid: 89ea442fc01cfa34995fdc64e3cd20c4
  m_configObjects: {}
